…
---

## 讀取計分檔。
記得用 `read_table()`，若用 `read_csv()` 因為是逗點切割，所以會全部分成一個欄位。

```r=
tds <- read_table('TDS.txt', col_names = FALSE)
```
ConQuest的計分檔（.txt）用R讀取後長這樣子：

```r
> tds
# A tibble: 413 x 3
      X1    X2 X3                    
   <dbl> <dbl> <chr>                 
 1     1     1 0122122211121231211113
 2     2     1 1111112212311221220121
 3     3     1 3233122012332333131001
 4     4     1 2212123221110332332212
 5     5     1 3320231030333322232332
 6     6     1 0232221222020232223222
 7     7     1 1111133223131223230012
 8     8     1 2223222222332322111221
 9     9     1 2131133231331132331111
10    10     1 0220122222330322123022
# … with 403 more rows
```
…
概念上就是用 `stringr::str_sub()` 函數，直向抽取數值。並存到 list 裡面。
再轉存成tibble型態。

---

## 測試

測試檔：台灣憂鬱量表（TDS），共 413 個觀察值，22 個題目。
用自編的 `item_split()` 函數切割檔案 `tds$X3`，存成 A。

```r
> A <- item_split(tds$X3, 22) 
> A
# A tibble: 413 x 22
      V1    V2    V3    V4    V5    V6    V7    V8    V9   V10   V11   V12
   <dbl> <dbl> <dbl> <dbl> <dbl> <dbl> <dbl> <dbl> <dbl> <dbl> <dbl> <dbl>
 1     0     1     2     2     1     2     2     2     1     1     1     2
 2     1     1     1     1     1     1     2     2     1     2     3     1
 3     3     2     3     3     1     2     2     0     1     2     3     3
 4     2     2     1     2     1     2     3     2     2     1     1     1
 5     3     3     2     0     2     3     1     0     3     0     3     3
 6     0     2     3     2     2     2     1     2     2     2     0     2
 7     1     1     1     1     1     3     3     2     2     3     1     3
 8     2     2     2     3     2     2     2     2     2     2     3     3
 9     2     1     3     1     1     3     3     2     3     1     3     3
10     0     2     2     0     1     2     2     2     2     2     3     3
# … with 403 more rows, and 10 more variables: V13 <dbl>, V14 <dbl>,
#   V15 <dbl>, V16 <dbl>, V17 <dbl>, V18 <dbl>, V19 <dbl>, V20 <dbl>,
#   V21 <dbl>, V22 <dbl>
```
…
